Some ideas for exploring missing data
…
prop_miss_var(rodents)

[1] 0.6666667

pct_miss_var(rodents)

[1] 66.66667

The syntax for the other numerical summaries in naniar are miss_, and then case, or var to refer to cases or variables. There are then summary, table suffixes.

miss_case_summary() returns a numeric value that describes the number of missings in a given case (aka row), the percent of missings in that row.

miss_case_summary(rodents)

# A tibble: 773 × 3
    case n_miss pct_miss
   <int>  <int>    <dbl>
 1    63      6     66.7
 2    74      6     66.7
 3    77      6     66.7
 4    78      6     66.7
 5    79      6     66.7
 6    91      6     66.7
 7    94      6     66.7
 8    95      6     66.7
 9    98      6     66.7
10   100      6     66.7
# ℹ 763 more rows
…
rodents_mean_imputed <- rodents %>%
  nabular() %>% 
  as.data.frame() %>% 
  impute_mean_all()

rodents_imputed_comparison <- bind_rows(
  add_residual = rodents_lm_tail_imputed_res,
  no_residual = rodents_lm_tail_imputed,
  mean_imp = rodents_mean_imputed,
  .id = "imputation_type"
) %>% as_tibble()

rodents_imputed_comparison

# A tibble: 2,319 × 19
   imputation_type date       species  total_length tail_length hind_foot_length
   <chr>           <date>     <chr>           <dbl>       <dbl>            <dbl>
 1 add_residual    2016-07-12 eastern…          360         165               28
 2 add_residual    2016-07-12 prairie…          123          32               12
 3 add_residual    2016-07-12 western…          138          69               15
 4 add_residual    2016-07-12 prairie…          149          35               13
 5 add_residual    2016-07-12 deer mo…          136          57               16
 6 add_residual    2016-07-12 deer mo…          169          55               15
 7 add_residual    2016-07-12 deer mo…          139          55               15
 8 add_residual    2016-07-12 deer mo…          136          57               14
 9 add_residual    2016-07-13 eastern…          331         136               27
10 add_residual    2016-07-13 eastern…          339         159               28
# ℹ 2,309 more rows
# ℹ 13 more variables: ear_length <dbl>, weight <dbl>, sex <chr>, age <chr>,
#   date_NA <fct>, species_NA <fct>, total_length_NA <fct>,
#   tail_length_NA <fct>, hind_foot_length_NA <fct>, ear_length_NA <fct>,
#   weight_NA <fct>, sex_NA <fct>, age_NA <fct>
…
